{
  "edges":[[0,3],[3,7],[7,4],[4,0],[7,10],[10,9],[9,8],[8,7],[4,5],[5,8],[8,6],[6,1],[1,5],[5,2],[2,4]],
  "vertices":[[0,16],[21,12],[47,15],[0,0],[36,9],[50,9],[16,24],[32,26],[51,25],[47,64],[68,54]]
}
