{
  "edges":[[2,5],[5,4],[4,1],[1,0],[0,8],[8,3],[3,7],[7,11],[11,13],[13,12],[12,18],[18,19],[19,14],[14,15],[15,17],[17,16],[16,10],[10,6],[6,2],[8,12],[7,9],[9,3],[8,9],[9,12],[13,9],[9,11],[4,8],[12,14],[5,10],[10,15]],
  "vertices":[[14,0],[15,10],[3,91],[21,13],[15,31],[8,60],[10,98],[28,4],[24,24],[31,15],[10,71],[38,6],[34,26],[41,17],[31,37],[19,64],[0,96],[10,94],[58,33],[51,40]]
}
